ATractiB_primary-endpoint_2023-03-27
…
data03_eos

# A tibble: 33 × 5
   patient  follow_up follow_up_reason                   death_reason eos_date  
   <chr>    <chr>     <chr>                              <chr>        <date>    
 1 0102-008 Yes       <NA>                               <NA>         2022-11-05
 2 0103-002 Yes       <NA>                               <NA>         2022-11-07
 3 0103-008 No        Death                              Unknown      2022-03-10
 4 0103-009 No        Withdrawal of consent by subject’… <NA>         2022-12-20
 5 0103-010 No        Death                              Worsening h… 2022-10-09
 6 0106-002 No        Death                              progression… 2022-07-30
 7 0107-001 No        Withdrawal of consent by subject’… <NA>         2022-09-27
 8 0107-006 No        Death                              disease pro… 2022-09-23
 9 0108-003 No        Lost to follow-up                  <NA>         2021-07-23
10 0108-005 Yes       <NA>                               <NA>         2023-03-10
# … with 23 more rows
…
